0,153.4682872875135,4.480241933064385
1,102.76554933966433,0.0
2,617.213329519794,251.53358281347192
3,324.83754122722627,119.04642850713938
4,355.35918939622735,129.28698149700082
5,441.4238368871919,136.96739623939692
6,184.3899570576811,43.52235020691117
7,191.43033723821085,47.36255757810922
8,171.96928634146244,36.481970026381425
9,277.3349760887088,70.40380180529748
10,1209.3453046464508,708.5182599860392
11,1049.5566760605072,654.1153222274003
12,668.396093389043,327.05766111370014
13,585.7516305880517,296.9760367059821
14,318.2371848079796,87.04470041382234
15,1344.6126090808903,784.0423382862674
16,512.8476937754639,282.25524178305625
17,2096.413206313141,1342.792510795583
18,448.40421382754664,199.05074874043197
19,502.98716130671056,225.29216577695195