n AODV DSDV OLSR
100 62.2309197652 56.5679150363 93.7786697248 
20 74.7627024009 72.5391498881 88.0960320107 
30 77.0821688094 69.0649496081 90.2546369066 
40 76.0972882304 60.8671328671 86.1950763478 
50 77.8429728975 60.7602012297 87.26443769 
